Project 1
…
Wrangling

For the first line of code, I first selected the columns that were of most interest to me. I then arranged the columns by country. Finally, I filtered the data so I could just look at the information for Canada. In the second line of code, I created a new variable called “gunhomic”, which displays the actual number of people killed by gun violence; this variable was added to my “joined” dataset. For the third line of code, I assessed the average gun homicide rate, average number of actual gun homicides, and average populations for each country along with counting the number of entries per country; I then arranged this data from greatest to least by average rate of gun homicides and rounded all the numeric variables to the hundredth place. In the fourth line of code, I generate summary statistics for the variables rgdpna, hc, labsh, and year.

Some interesting statistics to note are that Canada has the highest average rate of gun homicides out of 100k people (.71), while the United Kingdom has the lowest average rate of gun homicide out of 100k people (.06). Additionally, from the third line of code, I can determine that are 18 different countries in the “joined” dataset. From the summary statistics created in the fourth line of code, I can determine that the range of years for the dataset is from 1974 to 2017.

joined %>% select(country, isocode, year, value, everything()) %>% 
    arrange(country) %>% filter(isocode == "CAN")

## # A tibble: 44 x 8
##    country isocode  year value   pop    hc  rgdpna labsh
##    <chr>   <chr>   <dbl> <dbl> <dbl> <dbl>   <dbl> <dbl>
##  1 Canada  CAN      1974  1.24  22.8  2.93 559210. 0.748
##  2 Canada  CAN      1975  1.26  23.2  2.96 569404. 0.731
##  3 Canada  CAN      1976  1.1   23.5  2.98 599009. 0.732
##  4 Canada  CAN      1977  1.09  23.7  3.01 619724  0.725
##  5 Canada  CAN      1978  1.04  24.0  3.03 644225. 0.709
##  6 Canada  CAN      1979  0.85  24.3  3.06 668738. 0.684
##  7 Canada  CAN      1980  0.79  24.5  3.09 683200. 0.671
##  8 Canada  CAN      1981  0.8   24.8  3.11 707133. 0.693
##  9 Canada  CAN      1982  0.99  25.0  3.13 684491. 0.707
## 10 Canada  CAN      1983  0.88  25.3  3.15 702278. 0.677
## # … with 34 more rows
…
widerjoin %>% pivot_longer(4:21, names_to = "country code", values_to = "year") %>% 
    na.omit()

## # A tibble: 403 x 5
##      pop value gunhomic `country code`  year
##    <dbl> <dbl>    <dbl> <chr>          <dbl>
##  1  16.5 0.74     122.  AUS             1988
##  2  16.8 0.48      80.6 AUS             1989
##  3  17.0 0.46      78.4 AUS             1990
##  4  17.3 0.49      84.6 AUS             1991
##  5  17.5 0.55      96.2 AUS             1992
##  6  17.7 0.36      63.7 AUS             1993
##  7  17.9 0.43      76.9 AUS             1994
##  8  18.1 0.37      66.9 AUS             1995
##  9  18.3 0.570    104.  AUS             1996
## 10  18.5 0.43      79.4 AUS             1997
## # … with 393 more rows
…
##            humancap laborshare realgdp  year   pop value gunhomic
## humancap       1.00       0.15    0.28  0.21  0.17 -0.35    -0.12
## laborshare     0.15       1.00    0.06 -0.36  0.07  0.25     0.14
## realgdp        0.28       0.06    1.00  0.10  0.98 -0.16     0.45
## year           0.21      -0.36    0.10  1.00  0.01 -0.61    -0.37
## pop            0.17       0.07    0.98  0.01  1.00 -0.11     0.50
## value         -0.35       0.25   -0.16 -0.61 -0.11  1.00     0.62
## gunhomic      -0.12       0.14    0.45 -0.37  0.50  0.62     1.00

tidycorr <- cormat %>% as.data.frame %>% rownames_to_column("var1") %>% 
    pivot_longer(-1, names_to = "var2", values_to = "correlation")
tidycorr

## # A tibble: 49 x 3
##    var1       var2       correlation
##    <chr>      <chr>            <dbl>
##  1 humancap   humancap          1   
##  2 humancap   laborshare        0.15
##  3 humancap   realgdp           0.28
##  4 humancap   year              0.21
##  5 humancap   pop               0.17
##  6 humancap   value            -0.35
##  7 humancap   gunhomic         -0.12
##  8 laborshare humancap          0.15
##  9 laborshare laborshare        1   
## 10 laborshare realgdp           0.06
## # … with 39 more rows
…
